,dataset,m,best,sqrt,log2
0,clean1,166,16,12,6
0,diabetes,8,4,2,2
0,ecoli,7,1,2,2
0,letter,16,3,3,3
0,madeline,259,106,15,7
0,madelon,500,186,21,8
0,pendigits,16,7,3,3
0,philippine,308,276,17,7
0,segment,19,15,3,3
0,spambase,57,3,7,5
0,sylvine,20,14,3,3
0,vehicle,18,4,3,3
0,volkert,180,96,12,6
